<?xml version="1.0" encoding="UTF-8" standalone="no"?>
<!-- Uploaded to: SVG Repo, www.svgrepo.com, Generator: SVG Repo Mixer Tools -->

<svg
   width="799.99908"
   height="440.00015"
   viewBox="-4.5 0 19.999977 11.000004"
   version="1.1"
   id="svg12"
   sodipodi:docname="fleche.svg"
   inkscape:version="1.2.2 (b0a8486541, 2022-12-01)"
   xmlns:inkscape="http://www.inkscape.org/namespaces/inkscape"
   xmlns:sodipodi="http://sodipodi.sourceforge.net/DTD/sodipodi-0.dtd"
   xmlns="http://www.w3.org/2000/svg"
   xmlns:svg="http://www.w3.org/2000/svg"
   xmlns:rdf="http://www.w3.org/1999/02/22-rdf-syntax-ns#"
   xmlns:cc="http://creativecommons.org/ns#"
   xmlns:dc="http://purl.org/dc/elements/1.1/">
  <sodipodi:namedview
     id="namedview14"
     pagecolor="#ffffff"
     bordercolor="#000000"
     borderopacity="0.25"
     inkscape:showpageshadow="2"
     inkscape:pageopacity="0.0"
     inkscape:pagecheckerboard="0"
     inkscape:deskcolor="#d1d1d1"
     showgrid="false"
     inkscape:zoom="0.295"
     inkscape:cx="394.91525"
     inkscape:cy="225.42373"
     inkscape:window-width="1440"
     inkscape:window-height="831"
     inkscape:window-x="0"
     inkscape:window-y="0"
     inkscape:window-maximized="1"
     inkscape:current-layer="svg12" />
  <title
     id="title2">arrow_right [#336]</title>
  <desc
     id="desc4">Created with Sketch.</desc>
  <defs
     id="defs6" />
  <g
     id="Page-1"
     stroke="none"
     stroke-width="1"
     fill="none"
     fill-rule="evenodd"
     transform="matrix(0,-1,-1,0,15.499975,11.000003)">
    <g
       id="Dribbble-Light-Preview"
       transform="translate(-305,-6679)"
       fill="#000000">
      <g
         id="icons"
         transform="translate(56,160)">
        <path
           d="m 249.36585,6538.7077 v 0 c 0.40491,0.3897 1.06044,0.3897 1.46432,0 l 8.56324,-8.2636 c 0.80879,-0.7805 0.80879,-2.0466 0,-2.8271 l -8.62538,-8.3245 c -0.40077,-0.3858 -1.04801,-0.3908 -1.45396,-0.01 v 0 c -0.41423,0.3887 -0.41941,1.0293 -0.0114,1.424 l 7.89425,7.617 c 0.40492,0.3908 0.40492,1.0233 0,1.4141 l -7.83108,7.557 c -0.40491,0.3898 -0.40491,1.0233 0,1.4131"
           id="arrow_right-[#336]" />
      </g>
    </g>
  </g>
  <metadata
     id="metadata297">
    <rdf:RDF>
      <cc:Work
         rdf:about="">
        <dc:title>arrow_right [#336]</dc:title>
      </cc:Work>
    </rdf:RDF>
  </metadata>
</svg>
